…
           ))) %>% 
  pivot_longer(cols = `Tg2a -Dox`:`iEc10 +Dox`,
               values_to = "Expression",
               names_to = "Sample") %>%
  separate(Sample, into = c("Cell_line", "Dox"), sep = " ") %>%
  group_by(Gene, Dox) %>%
  t_test(Expression ~ Cell_line,
         ref.group = "Tg2a",
         p.adjust.method = "none") %>%
  adjust_pvalue(method = "fdr") %>%
    add_significance() %>%
    add_xy_position()
```

    ## # A tibble: 30 × 16
    ##    Gene   Dox   .y.        group1 group2    n1    n2 statistic    df     p p.adj
    ##    <chr>  <chr> <chr>      <chr>  <chr>  <int> <int>     <dbl> <dbl> <dbl> <dbl>
    ##  1 Ap2r   -Dox  Expression Tg2a   iEc1       3     3    -1.24   3.52 0.29  0.378
    ##  2 Ap2r   -Dox  Expression Tg2a   iEc10      3     3    -3.05   3.00 0.055 0.183
    ##  3 Ap2r   -Dox  Expression Tg2a   iN         3     3    -2.74   2.29 0.096 0.206
    ##  4 Ap2r   +Dox  Expression Tg2a   iEc1       3     3    -2.41   2.03 0.136 0.227
    ##  5 Ap2r   +Dox  Expression Tg2a   iEc10      3     3    -5.45   2.46 0.02  0.11 
    ##  6 Ap2r   +Dox  Expression Tg2a   iN         3     3   -10.4    2.07 0.008 0.08 
    ##  7 Blimp1 -Dox  Expression Tg2a   iEc1       3     3    -0.872  2.06 0.473 0.568
    ##  8 Blimp1 -Dox  Expression Tg2a   iEc10      3     3    -1.48   2.04 0.275 0.375
    ##  9 Blimp1 -Dox  Expression Tg2a   iN         3     3    -2.61   2.05 0.117 0.223
    ## 10 Blimp1 +Dox  Expression Tg2a   iEc1       3     3    -4.39   2.02 0.047 0.176
    ## # … with 20 more rows, and 5 more variables: p.adj.signif <chr>,
    ## #   y.position <dbl>, groups <named list>, xmin <dbl>, xmax <dbl>
…
